%YAML 1.1
%TAG !u! tag:unity3d.com,2011:
--- !u!1 &16049503954710411
GameObject:
  m_ObjectHideFlags: 0
  m_CorrespondingSourceObject: {fileID: 0}
  m_PrefabInstance: {fileID: 0}
  m_PrefabAsset: {fileID: 0}
  serializedVersion: 6
  m_Component:
  - component: {fileID: 16049503954710408}
  - component: {fileID: 16049503954710409}
  - component: {fileID: 16049503954710406}
  m_Layer: 0
  m_Name: elipant
  m_TagString: Untagged
  m_Icon: {fileID: 0}
  m_NavMeshLayer: 0
  m_StaticEditorFlags: 0
  m_IsActive: 1
--- !u!4 &16049503954710408
Transform:
  m_ObjectHideFlags: 0
  m_CorrespondingSourceObject: {fileID: 0}
  m_PrefabInstance: {fileID: 0}
  m_PrefabAsset: {fileID: 0}
  m_GameObject: {fileID: 16049503954710411}
  m_LocalRotation: {x: -0, y: -0, z: 0.044571362, w: -0.9990063}
  m_LocalPosition: {x: 10.34, y: -3.55, z: 29.837406}
  m_LocalScale: {x: 0.4288136, y: 0.4288136, z: 0.4288136}
  m_Children: []
  m_Father: {fileID: 16049504636614609}
  m_RootOrder: 0
  m_LocalEulerAnglesHint: {x: 0, y: 0, z: -5.109}
--- !u!212 &16049503954710409
SpriteRenderer:
  m_ObjectHideFlags: 0
  m_CorrespondingSourceObject: {fileID: 0}
  m_PrefabInstance: {fileID: 0}
  m_PrefabAsset: {fileID: 0}
  m_GameObject: {fileID: 16049503954710411}
  m_Enabled: 1
  m_CastShadows: 0
  m_ReceiveShadows: 0
  m_DynamicOccludee: 1
  m_MotionVectors: 1
  m_LightProbeUsage: 1
  m_ReflectionProbeUsage: 1
  m_RayTracingMode: 0
  m_RenderingLayerMask: 1
  m_RendererPriority: 0
  m_Materials:
  - {fileID: 10754, guid: 0000000000000000f000000000000000, type: 0}
  m_StaticBatchInfo:
    firstSubMesh: 0
    subMeshCount: 0
  m_StaticBatchRoot: {fileID: 0}
  m_ProbeAnchor: {fileID: 0}
  m_LightProbeVolumeOverride: {fileID: 0}
  m_ScaleInLightmap: 1
  m_ReceiveGI: 1
  m_PreserveUVs: 0
  m_IgnoreNormalsForChartDetection: 0
  m_ImportantGI: 0
  m_StitchLightmapSeams: 1
  m_SelectedEditorRenderState: 0
  m_MinimumChartSize: 4
  m_AutoUVMaxDistance: 0.5
  m_AutoUVMaxAngle: 89
  m_LightmapParameters: {fileID: 0}
  m_SortingLayerID: 0
  m_SortingLayer: 0
  m_SortingOrder: 0
  m_Sprite: {fileID: 21300000, guid: 2f2094204a153c24a807258aac443a17, type: 3}
  m_Color: {r: 1, g: 1, b: 1, a: 1}
  m_FlipX: 0
  m_FlipY: 0
  m_DrawMode: 0
  m_Size: {x: 8, y: 5.4}
  m_AdaptiveModeThreshold: 0.5
  m_SpriteTileMode: 0
  m_WasSpriteAssigned: 1
  m_MaskInteraction: 0
  m_SpriteSortPoint: 0
--- !u!60 &16049503954710406
PolygonCollider2D:
  m_ObjectHideFlags: 0
  m_CorrespondingSourceObject: {fileID: 0}
  m_PrefabInstance: {fileID: 0}
  m_PrefabAsset: {fileID: 0}
  m_GameObject: {fileID: 16049503954710411}
  m_Enabled: 1
  m_Density: 1
  m_Material: {fileID: 0}
  m_IsTrigger: 0
  m_UsedByEffector: 0
  m_UsedByComposite: 0
  m_Offset: {x: 0, y: 0}
  m_SpriteTilingProperty:
    border: {x: 0, y: 0, z: 0, w: 0}
    pivot: {x: 0.5, y: 0.5}
    oldSize: {x: 8, y: 5.4}
    newSize: {x: 8, y: 5.4}
    adaptiveTilingThreshold: 0.5
    drawMode: 0
    adaptiveTiling: 0
  m_AutoTiling: 0
  m_Points:
    m_Paths:
    - - {x: -1.53, y: -2.24}
      - {x: -1.4499999, y: -2.27}
      - {x: -1.4, y: -2.29}
      - {x: -1.3299999, y: -2.24}
      - {x: -1.3, y: -2.1}
      - {x: -1.15, y: -2.08}
      - {x: -0.93, y: -2.04}
      - {x: -0.82, y: -2.01}
      - {x: -0.71999997, y: -1.9699999}
      - {x: -0.53999996, y: -1.88}
      - {x: -0.35999998, y: -1.7199999}
      - {x: -0.29, y: -1.5999999}
      - {x: -0.24, y: -1.48}
      - {x: -0.12, y: -1.48}
      - {x: 0.06, y: -1.4499999}
      - {x: 0.58, y: -1.38}
      - {x: 0.88, y: -1.31}
      - {x: 0.96, y: -1.29}
      - {x: 1.06, y: -1.4}
      - {x: 1.11, y: -1.4399999}
      - {x: 1.28, y: -1.51}
      - {x: 1.41, y: -1.53}
      - {x: 1.55, y: -1.55}
      - {x: 1.89, y: -1.55}
      - {x: 2.1599998, y: -1.54}
      - {x: 2.1699998, y: -1.55}
      - {x: 2.35, y: -1.5799999}
      - {x: 2.44, y: -1.63}
      - {x: 2.59, y: -1.7199999}
      - {x: 2.7, y: -1.74}
      - {x: 2.81, y: -1.74}
      - {x: 2.9199998, y: -1.6899999}
      - {x: 3.11, y: -1.56}
      - {x: 3.34, y: -1.3199999}
      - {x: 3.3899999, y: -1.3199999}
      - {x: 3.48, y: -1.4}
      - {x: 3.57, y: -1.4599999}
      - {x: 3.7099998, y: -1.48}
      - {x: 3.82, y: -1.4}
      - {x: 3.82, y: -1.36}
      - {x: 3.8, y: -1.3299999}
      - {x: 3.72, y: -1.29}
      - {x: 3.6299999, y: -1.23}
      - {x: 3.4199998, y: -1.16}
      - {x: 3.3999999, y: -1.01}
      - {x: 3.29, y: -0.88}
      - {x: 3.1999998, y: -0.82}
      - {x: 3.1499999, y: -0.48999998}
      - {x: 3.1299999, y: -0.28}
      - {x: 3.1699998, y: -0.19}
      - {x: 3.22, y: -0.06}
      - {x: 3.27, y: 0.089999996}
      - {x: 3.29, y: 0.25}
      - {x: 3.3, y: 0.34}
      - {x: 3.3, y: 0.64}
      - {x: 3.28, y: 0.85999995}
      - {x: 3.25, y: 0.98999995}
      - {x: 3.1599998, y: 1.25}
      - {x: 3.04, y: 1.4599999}
      - {x: 2.95, y: 1.61}
      - {x: 2.84, y: 1.74}
      - {x: 2.7, y: 1.89}
      - {x: 2.6, y: 1.9799999}
      - {x: 2.48, y: 2.08}
      - {x: 2.3999999, y: 2.1299999}
      - {x: 2.1599998, y: 2.26}
      - {x: 1.9, y: 2.33}
      - {x: 1.6999999, y: 2.3799999}
      - {x: 1.4, y: 2.44}
      - {x: 1.3199999, y: 2.45}
      - {x: 1.01, y: 2.45}
      - {x: 0.91999996, y: 2.44}
      - {x: 0.66999996, y: 2.3999999}
      - {x: 0.34, y: 2.32}
      - {x: 0.22, y: 2.28}
      - {x: -0.16, y: 2.1499999}
      - {x: -0.21, y: 2.1299999}
      - {x: -0.58, y: 2}
      - {x: -0.69, y: 1.9699999}
      - {x: -0.74, y: 2}
      - {x: -0.76, y: 2.01}
      - {x: -0.77, y: 1.9599999}
      - {x: -0.97999996, y: 1.99}
      - {x: -1.13, y: 2}
      - {x: -1.15, y: 2.07}
      - {x: -1.26, y: 2.01}
      - {x: -1.3299999, y: 1.9699999}
      - {x: -1.48, y: 1.9399999}
      - {x: -1.54, y: 1.9699999}
      - {x: -1.64, y: 2.01}
      - {x: -1.73, y: 2.03}
      - {x: -1.87, y: 2.03}
      - {x: -1.9599999, y: 2.01}
      - {x: -2.04, y: 1.9799999}
      - {x: -2.1499999, y: 1.92}
      - {x: -2.33, y: 1.78}
      - {x: -2.5, y: 1.62}
      - {x: -2.6499999, y: 1.48}
      - {x: -2.8, y: 1.3299999}
      - {x: -2.83, y: 1.3299999}
      - {x: -3.03, y: 1.18}
      - {x: -3.1599998, y: 1.11}
      - {x: -3.3899999, y: 1.0699999}
      - {x: -3.47, y: 1.05}
      - {x: -3.57, y: 1.02}
      - {x: -3.6599998, y: 0.9}
      - {x: -3.6499999, y: 0.82}
      - {x: -3.62, y: 0.74}
      - {x: -3.57, y: 0.68}
      - {x: -3.49, y: 0.62}
      - {x: -3.25, y: 0.39}
      - {x: -3.11, y: 0.28}
      - {x: -3.05, y: 0.25}
      - {x: -3.3999999, y: 0.14999999}
      - {x: -3.62, y: 0.16}
      - {x: -3.6899998, y: 0.14999999}
      - {x: -3.73, y: 0.11}
      - {x: -3.7099998, y: 0.04}
      - {x: -3.6599998, y: -0.01}
      - {x: -3.54, y: -0.07}
      - {x: -3.4199998, y: -0.08}
      - {x: -3.55, y: -0.19999999}
      - {x: -3.6299999, y: -0.32}
      - {x: -3.75, y: -0.53}
      - {x: -3.81, y: -0.72999996}
      - {x: -3.83, y: -0.85999995}
      - {x: -3.83, y: -1.18}
      - {x: -3.8, y: -1.3199999}
      - {x: -3.75, y: -1.41}
      - {x: -3.6799998, y: -1.53}
      - {x: -3.61, y: -1.61}
      - {x: -3.5, y: -1.6899999}
      - {x: -3.4199998, y: -1.75}
      - {x: -3.32, y: -1.81}
      - {x: -3.04, y: -1.9}
      - {x: -2.96, y: -1.92}
      - {x: -2.78, y: -1.9799999}
      - {x: -2.77, y: -2.05}
      - {x: -2.73, y: -2.12}
      - {x: -2.6399999, y: -2.31}
      - {x: -2.48, y: -2.45}
      - {x: -2.45, y: -2.45}
      - {x: -2.12, y: -2.26}
      - {x: -2, y: -2.21}
      - {x: -1.7199999, y: -2.1499999}
      - {x: -1.64, y: -2.1399999}
--- !u!1 &16049504636614608
GameObject:
  m_ObjectHideFlags: 0
  m_CorrespondingSourceObject: {fileID: 0}
  m_PrefabInstance: {fileID: 0}
  m_PrefabAsset: {fileID: 0}
  serializedVersion: 6
  m_Component:
  - component: {fileID: 16049504636614609}
  - component: {fileID: 16049504636614446}
  m_Layer: 0
  m_Name: obstacles
  m_TagString: Untagged
  m_Icon: {fileID: 0}
  m_NavMeshLayer: 0
  m_StaticEditorFlags: 0
  m_IsActive: 1
--- !u!4 &16049504636614609
Transform:
  m_ObjectHideFlags: 0
  m_CorrespondingSourceObject: {fileID: 0}
  m_PrefabInstance: {fileID: 0}
  m_PrefabAsset: {fileID: 0}
  m_GameObject: {fileID: 16049504636614608}
  m_LocalRotation: {x: 0, y: 0, z: 0, w: 1}
  m_LocalPosition: {x: -2.3486056, y: -0.16744588, z: -29.837406}
  m_LocalScale: {x: 1, y: 1, z: 1}
  m_Children:
  - {fileID: 16049503954710408}
  m_Father: {fileID: 0}
  m_RootOrder: 0
  m_LocalEulerAnglesHint: {x: 0, y: 0, z: 0}
--- !u!114 &16049504636614446
MonoBehaviour:
  m_ObjectHideFlags: 0
  m_CorrespondingSourceObject: {fileID: 0}
  m_PrefabInstance: {fileID: 0}
  m_PrefabAsset: {fileID: 0}
  m_GameObject: {fileID: 16049504636614608}
  m_Enabled: 1
  m_EditorHideFlags: 0
  m_Script: {fileID: 11500000, guid: e83aa14db1abe504db19937f6320bbc5, type: 3}
  m_Name: 
  m_EditorClassIdentifier: 
